Monika Zaremba			6.00	6.00	6.00
Bartłomiej Kuleszewicz	Grzegorz Krysiak	IT	1.00	1.00	1.00
Piotr Ziewiec	Mariusz Gralewski		1.00	1.00	1.00
Ewelina Melon	Lucjan Samulowski	HR	6.00	6.00	6.00
Michał Kutra	Grzegorz Krysiak	IT	1.00	4.00	2.50
Seweryn Szmurło			4.00	4.00	4.00
Tomasz Wójcik	Grzegorz Krysiak	IT	1.00	4.00	2.50
Anna Furman			4.00	6.00	5.00
Anna Kazimierczak			4.00	4.00	4.00
Dawid Pietrołaj			1.00	4.00	2.50
Grzegorz Figurski			4.00	4.00	4.00
Kamil Walczak			x	4.00	4.00
Paweł Odziemczyk			1.00	4.00	2.50
Aliaksandr Chachotka			1.00	1.00	1.00
Ewa Tur			4.00	6.00	5.00
Grzegorz Krysiak			4.00	6.00	5.00
Jakub Jasiński	Bartłomiej Kuleszewicz	IT	x	1.00	1.00
Monika Radzikowska			6.00	6.00	6.00
Wioleta Koszel			6.00	6.00	6.00
Adrian Jakubiak			1.00	1.00	1.00
Katarzyna Gach			x	1.00	1.00
Monika Dec-Kasprzyk			1.00	4.00	2.50
Marcin Skowronek			x	1.00	1.00
Katarzyna Traczyk			4.00	4.00	4.00
Krzysztof Kolasiak	Grzegorz Krysiak	IT	1.00	1.00	1.00
Maciej Szkamruk			4.00	4.00	4.00
Magdalena Bażant			4.00	4.00	4.00
Michał Pekała			6.00	1.00	3.50
Adam Bartosiewicz			4.00	4.00	4.00
Bartłomiej Beta	Bartłomiej Kuleszewicz	IT	1.00	4.00	2.50
Ewa Baran			4.00	6.00	5.00
Ewa Krawcowicz			6.00	6.00	6.00
Izabela Łęgowska			4.00	6.00	5.00
Mateusz Mikulski			4.00	4.00	4.00
Wojciech Strzałkowski			1.00	4.00	2.50
Anna Wdowiak			4.00	6.00	5.00
Iwona Dziedzić-Gawryś			4.00	4.00	4.00
Jakub Derda			1.00	4.00	2.50
Łucja Pielichowska			6.00	6.00	6.00
Karolina Witkowska			4.00	6.00	5.00
Katarzyna Kobryń			6.00	4.00	5.00
Paulina Koblak-Dąbrowska			4.00	4.00	4.00
Jerzy Pielichowski			6.00	6.00	6.00
Jan Salwowski	Bartłomiej Kuleszewicz	IT	x	4.00	4.00
Marta Wrzosek			4.00	4.00	4.00
Radosław Mazowiecki			4.00	4.00	4.00
Ozan Tomar			4.00	6.00	5.00
Katarzyna Redmerska			6.00	6.00	6.00
Marcin Bełczowski			1.00	1.00	1.00
Martyna Szcześniak			4.00	4.00	4.00
Peter Bialo			6.00	4.00	5.00
Piotr Makowski			4.00	1.00	2.50
Sylwia Kesler			4.00	6.00	5.00
Wojciech Lewandowski			1.00	4.00	2.50
Agnieszka Prokopiuk			1.00	1.00	1.00
Dominika Bartol			6.00	6.00	6.00
Dorota Tarasiewicz			4.00	6.00	5.00
Ewelina Derda			6.00	6.00	6.00
Justyna Golec			4.00	1.00	2.50
Kamil Gdula			6.00	6.00	6.00
Katarzyna Pezda					
Kinga Rymkiewicz			4.00	1.00	2.50
Tomasz Nowak	Bartłomiej Kuleszewicz	IT	x	4.00	4.00
Łukasz Siewicki					
Kamil Popiński			1.00	4.00	2.50
Michał Sadowiak			4.00	6.00	5.00
Rafał Bocheński			1.00	6.00	3.50
Umit Akkaya			1	6	3,5
Lucjan Samulowski			6.00	4.00	5.00
Dani Espinosa			1.00	1.00	1.00
Tomasz Szeliga	Michał Kutra	IT	x	1.00	1.00
Martyna Bala-Chrupek			4.00	6.00	5.00
Justyna Białowąs			x	6.00	6.00
Katarzyna Burszewska			x	6.00	6.00
Marcin Moskała			x	x	2,5